{
  "StartAt": "StandardizeInput",
  "States": {
    "StandardizeInput": {
      "Type": "Task",
      "Resource": "${StandardizeStepInputArn}",
      "Next": "Update Release Mgmt Promote Config"
    },
    "Update Release Mgmt Promote Config": {
      "Comment": "Update the Promote Lambda to have target account in environment",
      "Type": "Task",
      "Resource": "${AsapPromoteConfigArn}",
      "Parameters": {
        "Account.$": "$.Account",
        "Region.$": "$.Region",
        "Repository": "eng-asap-release-mgmt-cicd-config",
        "RepositoryAccount": "${SourceAccountId}",
        "RepositoryRegion": "${SourceAccountRegion}",
        "AccountFile": "code/lambdas/asap_promote_releases/environ.json"
      },
      "ResultPath": "$.CommitResult",
      "TimeoutSeconds": 30,
      "Retry": [
        {
          "ErrorEquals": [
            "States.Timeout",
            "HeadOutdatedError"
          ],
          "IntervalSeconds": 1,
          "MaxAttempts": 3,
          "BackoffRate": 2
        }
      ],
      "Next": "Release Mgmt CICD"
    },
    "Release Mgmt CICD": {
      "Type": "Task",
      "Resource": "arn:aws:states:::states:startExecution.sync",
      "Parameters": {
        "StateMachineArn": "${StackSetInstanceArn}",
        "Input": {
          "StackSetName": "asap-cicd",
          "StackSetAccountId": "${StackSetAccountId}",
          "StackSetAccountRegion": "${StackSetAccountRegion}",
          "Account.$": "$.Account",
          "Region.$": "$.Region",
          "CommitResult.$": "$.CommitResult",
          "SourceOnly": true,
          "SourcePipeline": {
            "Account": "${StackSetAccountId}",
            "Region": "${StackSetAccountRegion}",
            "PipelineName": "asap-release-mgmt-cicd"
          },
          "AWS_STEP_FUNCTIONS_STARTED_BY_EXECUTION_ID.$": "$$.Execution.Id"
        }
      },
      "ResultPath": null,
      "TimeoutSeconds": 360,
      "Retry": [
        {
          "ErrorEquals": [
            "States.Timeout"
          ],
          "IntervalSeconds": 5,
          "MaxAttempts": 3,
          "BackoffRate": 2
        }
      ],
      "Next": "Update ASAP Infra Config"
    },
    "Update ASAP Infra Config": {
      "Comment": "Create the eng-asap-infra/configs/{account}.json if it doesn't exist",
      "Type": "Task",
      "Resource": "${AsapInfraConfigArn}",
      "Parameters": {
        "Account.$": "$.Account",
        "Region.$": "$.Region",
        "Repository": "eng-asap-infra",
        "RepositoryAccount": "${SourceAccountId}",
        "RepositoryRegion": "${SourceAccountRegion}",
        "TemplateFile": "configs/template.json",
        "AWS_STEP_FUNCTIONS_STARTED_BY_EXECUTION_ID.$": "$$.Execution.Id"
      },
      "ResultPath": "$.CommitResult",
      "TimeoutSeconds": 30,
      "Retry": [
        {
          "ErrorEquals": [
            "States.Timeout"
          ],
          "IntervalSeconds": 1,
          "MaxAttempts": 3,
          "BackoffRate": 2
        }
      ],
      "Next": "ASAP Infra Framework"
    },
    "ASAP Infra Framework": {
      "Type": "Task",
      "Resource": "arn:aws:states:::states:startExecution.sync",
      "Parameters": {
        "StateMachineArn": "${TargetAccountPipelineArn}",
        "Input": {
          "SourceOnly": false,
          "CommitResult.$": "$.CommitResult",
          "SourcePipeline": {
            "Account": "${PipelineAccountId}",
            "Region": "${PipelineAccountRegion}",
            "PipelineName": "asap-infra-release"
          },
          "TargetPipeline": {
            "Account.$": "$.Account",
            "Region.$": "$.Region",
            "PipelineName": "asap-infra"
          },
          "AWS_STEP_FUNCTIONS_STARTED_BY_EXECUTION_ID.$": "$$.Execution.Id"
        }
      },
      "ResultPath": null,
      "TimeoutSeconds": 900,
      "Retry": [
        {
          "ErrorEquals": [
            "States.Timeout"
          ],
          "IntervalSeconds": 1,
          "MaxAttempts": 3,
          "BackoffRate": 2
        }
      ],
      "Next": "YAPR CICD Stackset"
    },
    "YAPR CICD Stackset": {
      "Type": "Task",
      "Resource": "arn:aws:states:::states:startExecution.sync",
      "ResultPath": null,
      "Parameters": {
        "StateMachineArn": "${StackSetInstanceArn}",
        "Input": {
          "StackSetName": "asap-yapr-cicd",
          "StackSetAccountId": "${StackSetAccountId}",
          "StackSetAccountRegion": "${StackSetAccountRegion}",
          "Account.$": "$.Account",
          "Region.$": "$.Region",
          "AWS_STEP_FUNCTIONS_STARTED_BY_EXECUTION_ID.$": "$$.Execution.Id"
        }
      },
      "Next": "Update YAPR Infra Config"
    },
    "Update YAPR Infra Config": {
      "Type": "Task",
      "Resource": "${YaprInfraConfigArn}",
      "Parameters": {
        "Account.$": "$.Account",
        "Region.$": "$.Region",
        "Repository": "eng-asap-yapr-infra-configs",
        "RepositoryAccount": "${SourceAccountId}",
        "RepositoryRegion": "${SourceAccountRegion}",
        "TemplateFile": "configs/template.json"
      },
      "ResultPath": "$.CommitResult",
      "TimeoutSeconds": 30,
      "Retry": [
        {
          "ErrorEquals": [
            "States.Timeout"
          ],
          "IntervalSeconds": 1,
          "MaxAttempts": 3,
          "BackoffRate": 2
        }
      ],
      "Next": "Yapr Infra Framework"
    },
    "Yapr Infra Framework": {
      "Type": "Task",
      "Resource": "arn:aws:states:::states:startExecution.sync",
      "Parameters": {
        "StateMachineArn": "${TargetAccountPipelineArn}",
        "Input": {
          "SourceOnly": false,
          "CommitResult.$": "$.CommitResult",
          "SourcePipeline": {
            "Account": "${PipelineAccountId}",
            "Region": "${PipelineAccountRegion}",
            "PipelineName": "asap-yapr-infra-release"
          },
          "TargetPipeline": {
            "Account.$": "$.Account",
            "Region.$": "$.Region",
            "PipelineName": "asap-yapr-infra"
          },
          "AWS_STEP_FUNCTIONS_STARTED_BY_EXECUTION_ID.$": "$$.Execution.Id"
        }
      },
      "ResultPath": "$.PipelineState",
      "Next": "Onboard CfnRegistry Pipeline"
    },
    "Onboard CfnRegistry Pipeline": {
      "Type": "Task",
      "Resource": "arn:aws:states:::states:startExecution.sync",
      "ResultPath": null,
      "Parameters": {
        "StateMachineArn": "${OnboardAccountPipelineArn}",
        "Input": {
          "StackSet": {
            "Account.$": "$.Account",
            "Region.$": "$.Region",
            "StackSetName": "asap-cfn-registry-cicd",
            "StackSetAccountId": "${StackSetAccountId}",
            "StackSetAccountRegion": "${StackSetAccountRegion}"
          },
          "SourcePipeline": {
            "Account": "${PipelineAccountId}",
            "Region": "${PipelineAccountRegion}",
            "PipelineName": "asap-cfn-registry-onboard"
          },
          "TargetPipeline": {
            "Account.$": "$.Account",
            "Region.$": "$.Region",
            "PipelineName": "asap-cfn-registry"
          },
          "AWS_STEP_FUNCTIONS_STARTED_BY_EXECUTION_ID.$": "$$.Execution.Id"
        }
      },
      "Next": "Distribute Pipelines"
    },
    "Distribute Pipelines": {
      "Type": "Parallel",
      "ResultPath": null,
      "Next": "Post Process",
      "Branches": [
        {
          "StartAt": "YAPR STD Pipeline",
          "States": {
            "YAPR STD Pipeline": {
              "Type": "Task",
              "Resource": "arn:aws:states:::states:startExecution.sync",
              "ResultPath": "$.PipelineState",
              "Parameters": {
                "StateMachineArn": "${TargetAccountPipelineArn}",
                "Input": {
                  "SourceOnly": false,
                  "CommitResult": {
                    "Timestamp": 0
                  },
                  "SourcePipeline": {
                    "Account": "${PipelineAccountId}",
                    "Region": "${PipelineAccountRegion}",
                    "PipelineName": "asap-yapr-std-release"
                  },
                  "TargetPipeline": {
                    "Account.$": "$.Account",
                    "Region.$": "$.Region",
                    "PipelineName": "asap-yapr-std"
                  },
                  "AWS_STEP_FUNCTIONS_STARTED_BY_EXECUTION_ID.$": "$$.Execution.Id"
                }
              },
              "End": true
            }
          }
        },
        {
          "StartAt": "UAS Stackset",
          "States": {
            "UAS Stackset": {
              "Type": "Task",
              "Resource": "arn:aws:states:::states:startExecution.sync",
              "ResultPath": null,
              "Parameters": {
                "StateMachineArn": "${StackSetInstanceArn}",
                "Input": {
                  "StackSetName": "asap-uas-cicd",
                  "StackSetAccountId": "${StackSetAccountId}",
                  "StackSetAccountRegion": "${StackSetAccountRegion}",
                  "Account.$": "$.Account",
                  "Region.$": "$.Region",
                  "AWS_STEP_FUNCTIONS_STARTED_BY_EXECUTION_ID.$": "$$.Execution.Id"
                }
              },
              "Next": "UAS Pipeline"
            },
            "UAS Pipeline": {
              "Type": "Task",
              "Resource": "arn:aws:states:::states:startExecution.sync",
              "ResultPath": "$.PipelineState",
              "Parameters": {
                "StateMachineArn": "${TargetAccountPipelineArn}",
                "Input": {
                  "SourceOnly": false,
                  "CommitResult": {
                    "Timestamp": 0
                  },
                  "SourcePipeline": {
                    "Account": "${PipelineAccountId}",
                    "Region": "${PipelineAccountRegion}",
                    "PipelineName": "asap-uas-release"
                  },
                  "TargetPipeline": {
                    "Account.$": "$.Account",
                    "Region.$": "$.Region",
                    "PipelineName": "asap-uas"
                  },
                  "AWS_STEP_FUNCTIONS_STARTED_BY_EXECUTION_ID.$": "$$.Execution.Id"
                }
              },
              "End": true
            }
          }
        },
        {
          "StartAt": "YAPR CRAPE Pipeline",
          "States": {
            "YAPR CRAPE Pipeline": {
              "Type": "Task",
              "Resource": "arn:aws:states:::states:startExecution.sync",
              "ResultPath": "$.PipelineState",
              "Parameters": {
                "StateMachineArn": "${TargetAccountPipelineArn}",
                "Input": {
                  "SourceOnly": false,
                  "CommitResult": {
                    "Timestamp": 0
                  },
                  "SourcePipeline": {
                    "Account": "${PipelineAccountId}",
                    "Region": "${PipelineAccountRegion}",
                    "PipelineName": "asap-yapr-crape-release"
                  },
                  "TargetPipeline": {
                    "Account.$": "$.Account",
                    "Region.$": "$.Region",
                    "PipelineName": "asap-yapr-crape"
                  },
                  "AWS_STEP_FUNCTIONS_STARTED_BY_EXECUTION_ID.$": "$$.Execution.Id"
                }
              },
              "End": true
            }
          }
        },
        {
          "StartAt": "YAPR GISSM Pipeline",
          "States": {
            "YAPR GISSM Pipeline": {
              "Type": "Task",
              "Resource": "arn:aws:states:::states:startExecution.sync",
              "ResultPath": "$.PipelineState",
              "Parameters": {
                "StateMachineArn": "${TargetAccountPipelineArn}",
                "Input": {
                  "SourceOnly": false,
                  "CommitResult": {
                    "Timestamp": 0
                  },
                  "SourcePipeline": {
                    "Account": "${PipelineAccountId}",
                    "Region": "${PipelineAccountRegion}",
                    "PipelineName": "asap-yapr-gissm-release"
                  },
                  "TargetPipeline": {
                    "Account.$": "$.Account",
                    "Region.$": "$.Region",
                    "PipelineName": "asap-yapr-gissm"
                  },
                  "AWS_STEP_FUNCTIONS_STARTED_BY_EXECUTION_ID.$": "$$.Execution.Id"
                }
              },
              "End": true
            }
          }
        },
        {
          "StartAt": "DNS Stackset",
          "States": {
            "DNS Stackset": {
              "Type": "Task",
              "Resource": "arn:aws:states:::states:startExecution.sync",
              "ResultPath": null,
              "Parameters": {
                "StateMachineArn": "${StackSetInstanceArn}",
                "Input": {
                  "StackSetName": "asap-dns-release-cicd",
                  "StackSetAccountId": "${StackSetAccountId}",
                  "StackSetAccountRegion": "${StackSetAccountRegion}",
                  "Account.$": "$.Account",
                  "Region.$": "$.Region",
                  "AWS_STEP_FUNCTIONS_STARTED_BY_EXECUTION_ID.$": "$$.Execution.Id"
                }
              },
              "Next": "DNS Pipeline"
            },
            "DNS Pipeline": {
              "Type": "Task",
              "Resource": "arn:aws:states:::states:startExecution.sync",
              "ResultPath": null,
              "Parameters": {
                "StateMachineArn": "${TargetAccountPipelineArn}",
                "Input": {
                  "SourceOnly": false,
                  "CommitResult": {
                    "Timestamp": 0
                  },
                  "SourcePipeline": {
                    "Account": "928390949214",
                    "Region": "us-east-1",
                    "PipelineName": "asap-dns-release"
                  },
                  "TargetPipeline": {
                    "Account.$": "$.Account",
                    "Region.$": "$.Region",
                    "PipelineName": "asap-dns"
                  },
                  "AWS_STEP_FUNCTIONS_STARTED_BY_EXECUTION_ID.$": "$$.Execution.Id"
                }
              },
              "End": true
            }
          }
        },
        {
          "StartAt": "Delegate IntgDomain",
          "States": {
            "Delegate IntgDomain": {
              "Type": "Task",
              "Resource": "arn:aws:states:::states:startExecution.sync",
              "ResultPath": null,
              "Parameters": {
                "StateMachineArn": "${DelegateIntgDomainArn}",
                "Input": {
                  "Account.$": "$.Account",
                  "Region.$": "$.Region",
                  "AWS_STEP_FUNCTIONS_STARTED_BY_EXECUTION_ID.$": "$$.Execution.Id"
                }
              },
              "End": true
            }
          }
        },
        {
          "StartAt": "Legacy Utilities Config",
          "States": {
            "Legacy Utilities Config": {
              "Type": "Task",
              "Resource": "${FnmaServicesConfigArn}",
              "Parameters": {
                "Account.$": "$.Account",
                "Region.$": "$.Region",
                "Repository": "fnma-service-utilities-repo",
                "RepositoryAccount": "189693026861",
                "RepositoryRegion": "us-east-1",
                "BuildSh": "build.sh",
                "Configs": "configs",
                "StackConfig": {
                  "Parameters": {},
                  "StackPolicy": {}
                }
              },
              "ResultPath": "$.CommitResult",
              "TimeoutSeconds": 30,
              "Retry": [
                {
                  "ErrorEquals": [
                    "States.Timeout"
                  ],
                  "IntervalSeconds": 1,
                  "MaxAttempts": 3,
                  "BackoffRate": 2
                }
              ],
              "Next": "Legacy Utilities Pipeline"
            },
            "Legacy Utilities Pipeline": {
              "Type": "Task",
              "Resource": "arn:aws:states:::states:startExecution.sync",
              "ResultPath": "$.PipelineState",
              "Parameters": {
                "StateMachineArn": "${TargetAccountPipelineArn}",
                "Input": {
                  "SourceOnly": false,
                  "CommitResult.$": "$.CommitResult",
                  "SourcePipeline": {
                    "Account": "189693026861",
                    "Region": "us-east-1",
                    "PipelineName": "utilities-lambda-devl-pipeline",
                    "AutoApprove": true
                  },
                  "TargetPipeline": {
                    "Account.$": "$.Account",
                    "Region.$": "$.Region",
                    "PipelineName": "utilities-lambda-{lifecycle}-pipeline"
                  },
                  "AWS_STEP_FUNCTIONS_STARTED_BY_EXECUTION_ID.$": "$$.Execution.Id"
                }
              },
              "End": true
            }
          }
        },
        {
          "StartAt": "Legacy Monitoring Deployment Config",
          "States": {
            "Legacy Monitoring Deployment Config": {
              "Type": "Task",
              "Resource": "${FnmaServicesConfigArn}",
              "Parameters": {
                "Account.$": "$.Account",
                "Region.$": "$.Region",
                "Repository": "fnma-monitoring-repo",
                "RepositoryAccount": "189693026861",
                "RepositoryRegion": "us-east-1",
                "BuildSh": "build.sh",
                "Configs": [
                  "stack/configs"
                ],
                "StackConfig": {
                  "Parameters": {
                    "EMMRoleName": "MONITORING-LAMBDA{CONT}-EMM-ALERT"
                  },
                  "StackPolicy": {}
                }
              },
              "ResultPath": "$.CommitResult",
              "TimeoutSeconds": 30,
              "Retry": [
                {
                  "ErrorEquals": [
                    "States.Timeout"
                  ],
                  "IntervalSeconds": 1,
                  "MaxAttempts": 3,
                  "BackoffRate": 2
                }
              ],
              "Next": "Legacy Monitoring Deployment Pipeline"
            },
            "Legacy Monitoring Deployment Pipeline": {
              "Type": "Task",
              "Resource": "arn:aws:states:::states:startExecution.sync",
              "ResultPath": "$.PipelineState",
              "Parameters": {
                "StateMachineArn": "${TargetAccountPipelineArn}",
                "Input": {
                  "SourceOnly": false,
                  "CommitResult.$": "$.CommitResult",
                  "SourcePipeline": {
                    "Account": "189693026861",
                    "Region": "us-east-1",
                    "PipelineName": "monitoring-deployment-devl-pipeline",
                    "AutoApprove": true
                  },
                  "TargetPipeline": {
                    "Account.$": "$.Account",
                    "Region.$": "$.Region",
                    "PipelineName": "monitoring-deployment-{lifecycle}-pipeline"
                  },
                  "AWS_STEP_FUNCTIONS_STARTED_BY_EXECUTION_ID.$": "$$.Execution.Id"
                }
              },
              "End": true
            }
          }
        },
        {
          "StartAt": "Update Sudo Deploy",
          "States": {
            "Update Sudo Deploy": {
              "Type": "Task",
              "Resource": "${UpdateSudoDeployArn}",
              "Parameters": {
                "Account.$": "$.Account",
                "Region.$": "$.Region",
                "Repository": "fnma-sudo-repo",
                "RepositoryAccount": "189693026861",
                "RepositoryRegion": "us-east-1",
                "DeployScript": "scripts/deploy.sh"
              },
              "ResultPath": "$.CommitResult",
              "TimeoutSeconds": 30,
              "Retry": [
                {
                  "ErrorEquals": [
                    "States.Timeout"
                  ],
                  "IntervalSeconds": 1,
                  "MaxAttempts": 3,
                  "BackoffRate": 2
                }
              ],
              "Next": "Sudo Pipeline"
            },
            "Sudo Pipeline": {
              "Type": "Task",
              "Resource": "arn:aws:states:::states:startExecution.sync",
              "ResultPath": "$.PipelineState",
              "Parameters": {
                "StateMachineArn": "${TargetAccountPipelineArn}",
                "Input": {
                  "SourceOnly": true,
                  "SourcePipeline": {
                    "Account": "189693026861",
                    "Region": "us-east-1",
                    "PipelineName": "fnma-sudo-pipeline"
                  },
                  "CommitResult.$": "$.CommitResult",
                  "AWS_STEP_FUNCTIONS_STARTED_BY_EXECUTION_ID.$": "$$.Execution.Id"
                }
              },
              "End": true
            }
          }
        },
        {
          "StartAt": "AARP Stackset",
          "States": {
            "AARP Stackset": {
              "Type": "Task",
              "Resource": "arn:aws:states:::states:startExecution.sync",
              "ResultPath": "$.StacksetState",
              "Parameters": {
                "StateMachineArn": "${StackSetInstanceArn}",
                "Input": {
                  "StackSetName": "asap-aarp-cicd",
                  "StackSetAccountId": "${StackSetAccountId}",
                  "StackSetAccountRegion": "${StackSetAccountRegion}",
                  "Account.$": "$.Account",
                  "Region.$": "$.Region",
                  "AWS_STEP_FUNCTIONS_STARTED_BY_EXECUTION_ID.$": "$$.Execution.Id"
                }
              },
              "Next": "AARP Pipeline"
            },
            "AARP Pipeline": {
              "Type": "Task",
              "Resource": "arn:aws:states:::states:startExecution.sync",
              "ResultPath": "$.PipelineState",
              "Parameters": {
                "StateMachineArn": "${TargetAccountPipelineArn}",
                "Input": {
                  "SourceOnly": false,
                  "CommitResult": {
                    "Timestamp": 0
                  },
                  "SourcePipeline": {
                    "Account": "${PipelineAccountId}",
                    "Region": "${PipelineAccountRegion}",
                    "PipelineName": "asap-aarp-release"
                  },
                  "TargetPipeline": {
                    "Account.$": "$.Account",
                    "Region.$": "$.Region",
                    "PipelineName": "asap-aarp"
                  },
                  "AWS_STEP_FUNCTIONS_STARTED_BY_EXECUTION_ID.$": "$$.Execution.Id"
                }
              },
              "End": true
            }
          }
        },
        {
          "StartAt": "SCAM Stackset",
          "States": {
            "SCAM Stackset": {
              "Type": "Task",
              "Resource": "arn:aws:states:::states:startExecution.sync",
              "ResultPath": "$.StacksetState",
              "Parameters": {
                "StateMachineArn": "${StackSetInstanceArn}",
                "Input": {
                  "StackSetName": "asap-scam-cicd",
                  "StackSetAccountId": "${StackSetAccountId}",
                  "StackSetAccountRegion": "${StackSetAccountRegion}",
                  "Account.$": "$.Account",
                  "Region.$": "$.Region",
                  "AWS_STEP_FUNCTIONS_STARTED_BY_EXECUTION_ID.$": "$$.Execution.Id"
                }
              },
              "Next": "SCAM Pipeline"
            },
            "SCAM Pipeline": {
              "Type": "Task",
              "Resource": "arn:aws:states:::states:startExecution.sync",
              "ResultPath": "$.PipelineState",
              "Parameters": {
                "StateMachineArn": "${TargetAccountPipelineArn}",
                "Input": {
                  "SourceOnly": false,
                  "CommitResult": {
                    "Timestamp": 0
                  },
                  "SourcePipeline": {
                    "Account": "${PipelineAccountId}",
                    "Region": "${PipelineAccountRegion}",
                    "PipelineName": "asap-scam-release"
                  },
                  "TargetPipeline": {
                    "Account.$": "$.Account",
                    "Region.$": "$.Region",
                    "PipelineName": "asap-scam"
                  },
                  "AWS_STEP_FUNCTIONS_STARTED_BY_EXECUTION_ID.$": "$$.Execution.Id"
                }
              },
              "End": true
            }
          }
        },
        {
          "StartAt": "MAP Stackset",
          "States": {
            "MAP Stackset": {
              "Type": "Task",
              "Resource": "arn:aws:states:::states:startExecution.sync",
              "ResultPath": "$.StacksetState",
              "Parameters": {
                "StateMachineArn": "${StackSetInstanceArn}",
                "Input": {
                  "StackSetName": "asap-map-cicd",
                  "StackSetAccountId": "${StackSetAccountId}",
                  "StackSetAccountRegion": "${StackSetAccountRegion}",
                  "Account.$": "$.Account",
                  "Region.$": "$.Region",
                  "AWS_STEP_FUNCTIONS_STARTED_BY_EXECUTION_ID.$": "$$.Execution.Id"
                }
              },
              "Next": "MAP Pipeline"
            },
            "MAP Pipeline": {
              "Type": "Task",
              "Resource": "arn:aws:states:::states:startExecution.sync",
              "ResultPath": "$.PipelineState",
              "Parameters": {
                "StateMachineArn": "${TargetAccountPipelineArn}",
                "Input": {
                  "SourceOnly": false,
                  "CommitResult": {
                    "Timestamp": 0
                  },
                  "SourcePipeline": {
                    "Account": "${PipelineAccountId}",
                    "Region": "${PipelineAccountRegion}",
                    "PipelineName": "asap-map-release"
                  },
                  "TargetPipeline": {
                    "Account.$": "$.Account",
                    "Region.$": "$.Region",
                    "PipelineName": "asap-map"
                  },
                  "AWS_STEP_FUNCTIONS_STARTED_BY_EXECUTION_ID.$": "$$.Execution.Id"
                }
              },
              "End": true
            }
          }
        },
        {
          "StartAt": "Onboard ICR",
          "States": {
            "Onboard ICR": {
              "Type": "Task",
              "Resource": "arn:aws:states:::states:startExecution.sync",
              "ResultPath": null,
              "Parameters": {
                "StateMachineArn": "${OnboardAccountPipelineArn}",
                "Input": {
                  "StackSet": {
                    "Account.$": "$.Account",
                    "Region.$": "$.Region",
                    "StackSetName": "asap-icr-cicd",
                    "StackSetAccountId": "${StackSetAccountId}",
                    "StackSetAccountRegion": "${StackSetAccountRegion}"
                  },
                  "SourcePipeline": {
                    "Account": "${PipelineAccountId}",
                    "Region": "${PipelineAccountRegion}",
                    "PipelineName": "asap-icr-onboard"
                  },
                  "TargetPipeline": {
                    "Account.$": "$.Account",
                    "Region.$": "$.Region",
                    "PipelineName": "asap-icr"
                  },
                  "AWS_STEP_FUNCTIONS_STARTED_BY_EXECUTION_ID.$": "$$.Execution.Id"
                }
              },
              "End": true
            }
          }
        },
        {
          "StartAt": "Config Rules Stackset",
          "States": {
            "Config Rules Stackset": {
              "Type": "Task",
              "Resource": "arn:aws:states:::states:startExecution.sync",
              "ResultPath": "$.StacksetState",
              "Parameters": {
                "StateMachineArn": "${StackSetInstanceArn}",
                "Input": {
                  "StackSetName": "asap-config-rules-cicd",
                  "StackSetAccountId": "${StackSetAccountId}",
                  "StackSetAccountRegion": "${StackSetAccountRegion}",
                  "Account.$": "$.Account",
                  "Region.$": "$.Region",
                  "AWS_STEP_FUNCTIONS_STARTED_BY_EXECUTION_ID.$": "$$.Execution.Id"
                }
              },
              "Next": "Config Rules Pipeline"
            },
            "Config Rules Pipeline": {
              "Type": "Task",
              "Resource": "arn:aws:states:::states:startExecution.sync",
              "ResultPath": "$.PipelineState",
              "Parameters": {
                "StateMachineArn": "${TargetAccountPipelineArn}",
                "Input": {
                  "SourceOnly": false,
                  "CommitResult": {
                    "Timestamp": 0
                  },
                  "SourcePipeline": {
                    "Account": "${PipelineAccountId}",
                    "Region": "${PipelineAccountRegion}",
                    "PipelineName": "asap-config-rules-release"
                  },
                  "TargetPipeline": {
                    "Account.$": "$.Account",
                    "Region.$": "$.Region",
                    "PipelineName": "asap-config-rules"
                  },
                  "AWS_STEP_FUNCTIONS_STARTED_BY_EXECUTION_ID.$": "$$.Execution.Id"
                }
              },
              "End": true
            }
          }
        },
        {
          "StartAt": "EDBSS DAS Stackset",
          "States": {
            "EDBSS DAS Stackset": {
              "Type": "Task",
              "Resource": "arn:aws:states:::states:startExecution.sync",
              "ResultPath": "$.StacksetState",
              "Parameters": {
                "StateMachineArn": "${StackSetInstanceArn}",
                "Input": {
                  "StackSetName": "asap-edbss-das-cicd",
                  "StackSetAccountId": "${StackSetAccountId}",
                  "StackSetAccountRegion": "${StackSetAccountRegion}",
                  "Account.$": "$.Account",
                  "Region.$": "$.Region",
                  "AWS_STEP_FUNCTIONS_STARTED_BY_EXECUTION_ID.$": "$$.Execution.Id"
                }
              },
              "End": true
            }
          }
        },
        {
          "StartAt": "EC2COTS Stackset",
          "States": {
            "EC2COTS Stackset": {
              "Type": "Task",
              "Resource": "arn:aws:states:::states:startExecution.sync",
              "ResultPath": "$.StacksetState",
              "Parameters": {
                "StateMachineArn": "${StackSetInstanceArn}",
                "Input": {
                  "StackSetName": "asap-fmssm-ec2auto-cicd",
                  "StackSetAccountId": "${StackSetAccountId}",
                  "StackSetAccountRegion": "${StackSetAccountRegion}",
                  "Account.$": "$.Account",
                  "Region.$": "$.Region",
                  "AWS_STEP_FUNCTIONS_STARTED_BY_EXECUTION_ID.$": "$$.Execution.Id"
                }
              },
              "End": true
            }
          }
        }
      ]
    },
    "Post Process": {
      "Type": "Parallel",
      "Next": "Shakeout Process",
      "Branches": [
        {
          "StartAt": "GIFactory Stackset",
          "States": {
            "GIFactory Stackset": {
              "Type": "Task",
              "Resource": "arn:aws:states:::states:startExecution.sync",
              "ResultPath": "$.StacksetState",
              "Parameters": {
                "StateMachineArn": "${StackSetInstanceArn}",
                "Input": {
                  "StackSetName": "asap-gifactory-cicd",
                  "StackSetAccountId": "${StackSetAccountId}",
                  "StackSetAccountRegion": "${StackSetAccountRegion}",
                  "Account.$": "$.Account",
                  "Region.$": "$.Region",
                  "AWS_STEP_FUNCTIONS_STARTED_BY_EXECUTION_ID.$": "$$.Execution.Id"
                }
              },
              "Next": "GIFactory Pipeline"
            },
            "GIFactory Pipeline": {
              "Type": "Task",
              "Resource": "arn:aws:states:::states:startExecution.sync",
              "ResultPath": "$.PipelineState",
              "Parameters": {
                "StateMachineArn": "${TargetAccountPipelineArn}",
                "Input": {
                  "SourceOnly": false,
                  "CommitResult": {
                    "Timestamp": 0
                  },
                  "SourcePipeline": {
                    "Account": "${PipelineAccountId}",
                    "Region": "${PipelineAccountRegion}",
                    "PipelineName": "asap-gifactory-release"
                  },
                  "TargetPipeline": {
                    "Account.$": "$.Account",
                    "Region.$": "$.Region",
                    "PipelineName": "asap-gifactory"
                  },
                  "AWS_STEP_FUNCTIONS_STARTED_BY_EXECUTION_ID.$": "$$.Execution.Id"
                }
              },
              "Next": "Build Gold Images"
            },
            "Build Gold Images": {
              "Type": "Task",
              "Resource": "arn:aws:states:::states:startExecution.sync",
              "ResultPath": null,
              "Parameters": {
                "StateMachineArn": "${BuildGoldImagesArn}",
                "Input": {
                  "Account.$": "$.Account",
                  "Region.$": "$.Region",
                  "AWS_STEP_FUNCTIONS_STARTED_BY_EXECUTION_ID.$": "$$.Execution.Id"
                }
              },
              "End": true
            }
          }
        },
        {
          "StartAt": "Register Public Domain",
          "States": {
            "Register Public Domain": {
              "Type": "Task",
              "Resource": "arn:aws:states:::states:startExecution.sync",
              "ResultPath": null,
              "Parameters": {
                "StateMachineArn": "${RegisterPublicDomainArn}",
                "Input": {
                  "Account.$": "$.Account",
                  "Region.$": "$.Region",
                  "AWS_STEP_FUNCTIONS_STARTED_BY_EXECUTION_ID.$": "$$.Execution.Id"
                }
              },
              "End": true
            }
          }
        },
        {
          "StartAt": "Enable Cross-Account Transformation Notification",
          "States": {
            "Enable Cross-Account Transformation Notification": {
              "Type": "Task",
              "Resource": "${SnsAccessPolicyArn}",
              "ResultPath": null,
              "Parameters": {
                "Account.$": "$.Account",
                "Region.$": "$.Region",
                "TopicAccount": "189693026861",
                "TopicRegion": "us-east-1",
                "TopicName": "fnma-awstransformation-notification",
                "RolePathAndName": "fnma/asap/asap-compute"
              },
              "Retry": [
                {
                  "ErrorEquals": [
                    "States.Timeout",
                    "Lambda.TooManyRequestsException"
                  ],
                  "IntervalSeconds": 1,
                  "MaxAttempts": 3,
                  "BackoffRate": 2
                }
              ],
              "Next": "Enable Cross-Account Send Notification"
            },
            "Enable Cross-Account Send Notification": {
              "Type": "Task",
              "Resource": "${SnsAccessPolicyArn}",
              "ResultPath": null,
              "Parameters": {
                "Account.$": "$.Account",
                "Region.$": "$.Region",
                "TopicAccount": "189693026861",
                "TopicRegion": "us-east-1",
                "TopicName": "fnma-send-notification",
                "RolePathAndName": "fnma/asap/asap-compute"
              },
              "Retry": [
                {
                  "ErrorEquals": [
                    "States.Timeout"
                  ],
                  "IntervalSeconds": 1,
                  "MaxAttempts": 3,
                  "BackoffRate": 2
                }
              ],
              "End": true
            }
          }
        },
        {
          "StartAt": "Get Target Account Queue URLs",
          "States": {
            "Get Target Account Queue URLs": {
              "Type": "Task",
              "Resource": "${WorkerQueueInfoArn}",
              "ResultPath": "$.WorkerQueueInfo",
              "Parameters": {
                "Account.$": "$.Account",
                "Region.$": "$.Region",
                "StackName": "asap-aarp"
              },
              "Next": "Update Poller config for queues"
            },
            "Update Poller config for queues": {
              "Type": "Task",
              "Resource": "${UpdatePollerConfigArn}",
              "ResultPath": "$.CommitResult",
              "Parameters": {
                "Account.$": "$.Account",
                "Region.$": "$.Region",
                "Repository": "fnma-provisioning-services-repo",
                "RepositoryAccount": "189693026861",
                "RepositoryRegion": "us-east-1",
                "TemplateDirectory": "configs/services/v2/devl/poller20",
                "TemplateFile": "parameters.template",
                "CatalogId": "ecad248ddbaf00d00bdeaca2ca9619ae",
                "ParameterPrefix": "/provisioning/services/poller",
                "CommissioningQueueURL.$": "$.WorkerQueueInfo.CommissioningQueueURL",
                "DecommissioningQueueURL.$": "$.WorkerQueueInfo.DecommissioningQueueURL"
              },
              "Next": "Provisioning Services Pipeline"
            },
            "Provisioning Services Pipeline": {
              "Type": "Task",
              "Resource": "arn:aws:states:::states:startExecution.sync",
              "ResultPath": "$.PipelineState",
              "Parameters": {
                "StateMachineArn": "${TargetAccountPipelineArn}",
                "Input": {
                  "SourceOnly": true,
                  "SourcePipeline": {
                    "Account": "189693026861",
                    "Region": "us-east-1",
                    "PipelineName": "provisioning-services-devl-pipeline"
                  },
                  "CommitResult.$": "$.CommitResult",
                  "AWS_STEP_FUNCTIONS_STARTED_BY_EXECUTION_ID.$": "$$.Execution.Id"
                }
              },
              "End": true
            }
          }
        },
        {
          "StartAt": "Create Cloudwatch logdestination",
          "States": {
            "Create Cloudwatch logdestination": {
              "Type": "Task",
              "Resource": "arn:aws:states:::states:startExecution.sync",
              "ResultPath": null,
              "Parameters": {
                "StateMachineArn": "${CWLDestinationArn}",
                "Input": {
                  "Account.$": "$.Account",
                  "Region.$": "$.Region",
                  "AWS_STEP_FUNCTIONS_STARTED_BY_EXECUTION_ID.$": "$$.Execution.Id"
                }
              },
              "End": true
            }
          }
        },
        {
          "StartAt": "Deploy Policy Engine",
          "States": {
            "Deploy Policy Engine": {
              "Type": "Task",
              "Resource": "arn:aws:states:::states:startExecution.sync",
              "ResultPath": "$.CoreResourcesOutput",
              "Parameters": {
                "StateMachineArn": "${AISDeployArn}",
                "Input": {
                  "Account.$": "$.Account",
                  "Region.$": "$.Region",
                  "StackSetAccountId": "${StackSetAccountId}",
                  "StackSetAccountRegion": "${StackSetAccountRegion}",
                  "PipelineAccountId": "${PipelineAccountId}",
                  "PipelineAccountRegion": "${PipelineAccountRegion}",
                  "AWS_STEP_FUNCTIONS_STARTED_BY_EXECUTION_ID.$": "$$.Execution.Id"
                }
              },
              "End": true
            }
          }
        },
        {
          "StartAt": "Windows Actions",
          "States": {
            "Windows Actions": {
              "Type": "Task",
              "Resource": "arn:aws:states:::states:startExecution.sync",
              "ResultPath": "$.WindowsActions",
              "Parameters": {
                "StateMachineArn": "${WindowsActionsArn}",
                "Input": {
                  "Account.$": "$.Account",
                  "Region.$": "$.Region",
                  "AWS_STEP_FUNCTIONS_STARTED_BY_EXECUTION_ID.$": "$$.Execution.Id"
                }
              },
              "End": true
            }
          }
        },
        {
          "StartAt": "Uxeng Partner Products",
          "States": {
            "Uxeng Partner Products": {
              "Type": "Task",
              "Resource": "arn:aws:states:::states:startExecution.sync",
              "ResultPath": null,
              "Parameters": {
                "StateMachineArn": "${OnboardAccountPipelineArn}",
                "Input": {
                  "StackSet": {
                    "Account.$": "$.Account",
                    "Region.$": "$.Region",
                    "StackSetName": "asap-uxeng-cicd",
                    "StackSetAccountId": "${StackSetAccountId}",
                    "StackSetAccountRegion": "${StackSetAccountRegion}"
                  },
                  "SourcePipeline": {
                    "Account": "${PipelineAccountId}",
                    "Region": "${PipelineAccountRegion}",
                    "PipelineName": "asap-uxeng-onboard"
                  },
                  "TargetPipeline": {
                    "Account.$": "$.Account",
                    "Region.$": "$.Region",
                    "PipelineName": "asap-uxeng-cicd"
                  },
                  "AWS_STEP_FUNCTIONS_STARTED_BY_EXECUTION_ID.$": "$$.Execution.Id"
                }
              },
              "End": true
            }
          }
        },
        {
          "StartAt": "DMS Stackset",
          "States": {
            "DMS Stackset": {
              "Type": "Task",
              "Resource": "arn:aws:states:::states:startExecution.sync",
              "ResultPath": "$.StacksetState",
              "Parameters": {
                "StateMachineArn": "${StackSetInstanceArn}",
                "Input": {
                  "StackSetName": "asap-dms-resources-cicd",
                  "StackSetAccountId": "${StackSetAccountId}",
                  "StackSetAccountRegion": "${StackSetAccountRegion}",
                  "Account.$": "$.Account",
                  "Region.$": "$.Region",
                  "AWS_STEP_FUNCTIONS_STARTED_BY_EXECUTION_ID.$": "$$.Execution.Id"
                }
              },
               "Next": "DMS Pipeline"
            },
            "DMS Pipeline": {
              "Type": "Task",
              "Resource": "arn:aws:states:::states:startExecution.sync",
              "ResultPath": "$.PipelineState",
              "Parameters": {
                "StateMachineArn": "${TargetAccountPipelineArn}",
                "Input": {
                  "SourceOnly": false,
                  "CommitResult": {
                    "Timestamp": 0
                  },
                  "SourcePipeline": {
                    "Account": "${PipelineAccountId}",
                    "Region": "${PipelineAccountRegion}",
                    "PipelineName": "asap-dms-resources-release"
                  },
                  "TargetPipeline": {
                    "Account.$": "$.Account",
                    "Region.$": "$.Region",
                    "PipelineName": "asap-dms-resources"
                  },
                  "AWS_STEP_FUNCTIONS_STARTED_BY_EXECUTION_ID.$": "$$.Execution.Id"
                }
              },
              "End": true
            }
          }
        },        
        {
          "StartAt": "Onboard FLEX",
          "States": {
            "Onboard FLEX": {
              "Type": "Task",
              "Resource": "arn:aws:states:::states:startExecution.sync",
              "ResultPath": null,
              "Parameters": {
                "StateMachineArn": "${OnboardAccountPipelineArn}",
                "Input": {
                  "StackSet": {
                    "StackSetName": "asap-flexgw-cicd",
                    "StackSetAccountId": "${StackSetAccountId}",
                    "StackSetAccountRegion": "${StackSetAccountRegion}",
                    "Account.$": "$.Account",
                    "Region.$": "$.Region",
                    "AWS_STEP_FUNCTIONS_STARTED_BY_EXECUTION_ID.$": "$$.Execution.Id"
                  },
                  "SourcePipeline": {
                    "Account": "${PipelineAccountId}",
                    "Region": "${PipelineAccountRegion}",
                    "PipelineName": "asap-flexgw-onboard"
                  },
                  "TargetPipeline": {
                    "Account.$": "$.Account",
                    "Region.$": "$.Region",
                    "PipelineName": "asap-flexgw"
                  },
                  "AWS_STEP_FUNCTIONS_STARTED_BY_EXECUTION_ID.$": "$$.Execution.Id"
                }
              },
              "End": true
            }
          }
        },
        {
          "StartAt": "EMM Stackset",
          "States": {
            "EMM Stackset": {
              "Type": "Task",
              "Resource": "arn:aws:states:::states:startExecution.sync",
              "ResultPath": "$.StacksetState",
              "Parameters": {
                "StateMachineArn": "${StackSetInstanceArn}",
                "Input": {
                  "StackSetName": "asap-emm-cicd",
                  "StackSetAccountId": "${StackSetAccountId}",
                  "StackSetAccountRegion": "${StackSetAccountRegion}",
                  "Account.$": "$.Account",
                  "Region.$": "$.Region",
                  "AWS_STEP_FUNCTIONS_STARTED_BY_EXECUTION_ID.$": "$$.Execution.Id"
                }
              },
              "Next": "EMM Pipeline"
            },
            "EMM Pipeline": {
              "Type": "Task",
              "Resource": "arn:aws:states:::states:startExecution.sync",
              "ResultPath": "$.PipelineState",
              "Parameters": {
                "StateMachineArn": "${TargetAccountPipelineArn}",
                "Input": {
                  "SourceOnly": false,
                  "CommitResult": {
                    "Timestamp": 0
                  },
                  "SourcePipeline": {
                    "Account": "${PipelineAccountId}",
                    "Region": "${PipelineAccountRegion}",
                    "PipelineName": "asap-emm-release"
                  },
                  "TargetPipeline": {
                    "Account.$": "$.Account",
                    "Region.$": "$.Region",
                    "PipelineName": "asap-emm"
                  },
                  "AWS_STEP_FUNCTIONS_STARTED_BY_EXECUTION_ID.$": "$$.Execution.Id"
                }
              },
              "End": true
            }
          }
        }
      ]
    },
    "Shakeout Process": {
      "Type": "Task",
      "Resource": "arn:aws:states:::states:startExecution.sync",
      "ResultPath": null,
      "Parameters": {
        "StateMachineArn": "${ValidateAccountArn}",
        "Input": {
          "Account.$": "$[0].Account",
          "Region.$": "$[0].Region",
          "AWS_STEP_FUNCTIONS_STARTED_BY_EXECUTION_ID.$": "$$.Execution.Id"
        }
      },
      "Next": "Post Provisioning"
    },
    "Post Provisioning": {
      "Type": "Task",
      "Resource": "arn:aws:states:::states:startExecution.sync",
      "Parameters": {
        "StateMachineArn": "${PostProvisioningArn}",
        "Input": {
          "Account.$": "$[0].Account",
          "Region.$": "$[0].Region",
          "AWS_STEP_FUNCTIONS_STARTED_BY_EXECUTION_ID.$": "$$.Execution.Id"
        }
      },
      "End": true
    }
  }
}
